%!PS-Adobe-3.0 EPSF-3.0
%%Title: /home/ddcr/Dropbox/libatoms-ddcr-read-only/carbon_proj/POSTER_FIGS/energies_comparison.eps
%%Creator: matplotlib version 1.1.0, http://matplotlib.sourceforge.net/
%%CreationDate: Mon Jan 28 09:46:12 2013
%%Orientation: portrait
%%BoundingBox: 18 180 594 612
%%EndComments
%%BeginProlog
/mpldict 8 dict def
mpldict begin
/m { moveto } bind def
/l { lineto } bind def
/r { rlineto } bind def
/c { curveto } bind def
/cl { closepath } bind def
/box {
m
1 index 0 r
0 exch r
neg 0 r
cl
} bind def
/clipbox {
box
clip
newpath
} bind def
%!PS-Adobe-3.0 Resource-Font
%%Title: Bitstream Vera Sans
%%Copyright: Copyright (c) 2003 by Bitstream, Inc. All Rights Reserved.
%%Creator: Converted from TrueType to type 3 by PPR
25 dict begin
/_d{bind def}bind def
/_m{moveto}_d
/_l{lineto}_d
/_cl{closepath eofill}_d
/_c{curveto}_d
/_sc{7 -1 roll{setcachedevice}{pop pop pop pop pop pop}ifelse}_d
/_e{exec}_d
/FontName /BitstreamVeraSans-Roman def
/PaintType 0 def
/FontMatrix[.001 0 0 .001 0 0]def
/FontBBox[-183 -236 1287 928]def
/FontType 3 def
/Encoding [ /space /parenleft /parenright /asterisk /hyphen /slash /zero /one /two /three /four /five /six /seven /eight /nine /A /B /D /E /F /G /J /L /N /O /P /S /T /V /Y /a /b /c /d /e /g /h /i /k /l /m /n /o /p /r /s /t /u /v /w /y /minus ] def
/FontInfo 10 dict dup begin
/FamilyName (Bitstream Vera Sans) def
/FullName (Bitstream Vera Sans) def
/Notice (Copyright (c) 2003 by Bitstream, Inc. All Rights Reserved. Bitstream Vera is a trademark of Bitstream, Inc.) def
/Weight (Roman) def
/Version (Release 1.10) def
/ItalicAngle 0.0 def
/isFixedPitch false def
/UnderlinePosition -213 def
/UnderlineThickness 143 def
end readonly def
/CharStrings 53 dict dup begin
/space{318 0 0 0 0 0 _sc
}_d
/parenleft{390 0 86 -131 310 759 _sc
310 759 _m
266 683 234 609 213 536 _c
191 463 181 389 181 314 _c
181 238 191 164 213 91 _c
234 17 266 -56 310 -131 _c
232 -131 _l
183 -54 146 20 122 94 _c
98 168 86 241 86 314 _c
86 386 98 459 122 533 _c
146 607 182 682 232 759 _c
310 759 _l
_cl}_d
/parenright{390 0 80 -131 304 759 _sc
80 759 _m
158 759 _l
206 682 243 607 267 533 _c
291 459 304 386 304 314 _c
304 241 291 168 267 94 _c
243 20 206 -54 158 -131 _c
80 -131 _l
123 -56 155 17 177 91 _c
198 164 209 238 209 314 _c
209 389 198 463 177 536 _c
155 609 123 683 80 759 _c
_cl}_d
/asterisk{500 0 30 286 470 742 _sc
470 609 _m
295 514 _l
470 419 _l
442 371 _l
278 470 _l
278 286 _l
222 286 _l
222 470 _l
58 371 _l
30 419 _l
205 514 _l
30 609 _l
58 657 _l
222 558 _l
222 742 _l
278 742 _l
278 558 _l
442 657 _l
470 609 _l
_cl}_d
/hyphen{361 0 49 234 312 314 _sc
49 314 _m
312 314 _l
312 234 _l
49 234 _l
49 314 _l
_cl}_d
/slash{337 0 0 -92 337 729 _sc
254 729 _m
337 729 _l
83 -92 _l
0 -92 _l
254 729 _l
_cl}_d
/zero{636 0 66 -13 570 742 _sc
318 664 _m
267 664 229 639 203 589 _c
177 539 165 464 165 364 _c
165 264 177 189 203 139 _c
229 89 267 64 318 64 _c
369 64 407 89 433 139 _c
458 189 471 264 471 364 _c
471 464 458 539 433 589 _c
407 639 369 664 318 664 _c
318 742 _m
399 742 461 709 505 645 _c
548 580 570 486 570 364 _c
570 241 548 147 505 83 _c
461 19 399 -13 318 -13 _c
236 -13 173 19 130 83 _c
87 147 66 241 66 364 _c
66 486 87 580 130 645 _c
173 709 236 742 318 742 _c
_cl}_d
/one{636 0 110 0 544 729 _sc
124 83 _m
285 83 _l
285 639 _l
110 604 _l
110 694 _l
284 729 _l
383 729 _l
383 83 _l
544 83 _l
544 0 _l
124 0 _l
124 83 _l
_cl}_d
/two{{636 0 73 0 536 742 _sc
192 83 _m
536 83 _l
536 0 _l
73 0 _l
73 83 _l
110 121 161 173 226 239 _c
290 304 331 346 348 365 _c
380 400 402 430 414 455 _c
426 479 433 504 433 528 _c
433 566 419 598 392 622 _c
365 646 330 659 286 659 _c
255 659 222 653 188 643 _c
154 632 117 616 78 594 _c
78 694 _l
118 710 155 722 189 730 _c
223 738 255 742 284 742 _c
359 742 419 723 464 685 _c
509 647 532 597 532 534 _c
532 504 526 475 515 449 _c
504 422 484 390 454 354 _c
446 344 420 317 376 272 _c
332 227 271 164 192 83 _c
_cl}_e}_d
/three{{636 0 76 -13 556 742 _sc
406 393 _m
453 383 490 362 516 330 _c
542 298 556 258 556 212 _c
556 140 531 84 482 45 _c
432 6 362 -13 271 -13 _c
240 -13 208 -10 176 -4 _c
144 1 110 10 76 22 _c
76 117 _l
103 101 133 89 166 81 _c
198 73 232 69 268 69 _c
330 69 377 81 409 105 _c
441 129 458 165 458 212 _c
458 254 443 288 413 312 _c
383 336 341 349 287 349 _c
202 349 _l
202 430 _l
291 430 _l
339 430 376 439 402 459 _c
428 478 441 506 441 543 _c
441 580 427 609 401 629 _c
374 649 336 659 287 659 _c
260 659 231 656 200 650 _c
169 644 135 635 98 623 _c
98 711 _l
135 721 170 729 203 734 _c
235 739 266 742 296 742 _c
}_e{370 742 429 725 473 691 _c
517 657 539 611 539 553 _c
539 513 527 479 504 451 _c
481 423 448 403 406 393 _c
_cl}_e}_d
/four{636 0 49 0 580 729 _sc
378 643 _m
129 254 _l
378 254 _l
378 643 _l
352 729 _m
476 729 _l
476 254 _l
580 254 _l
580 172 _l
476 172 _l
476 0 _l
378 0 _l
378 172 _l
49 172 _l
49 267 _l
352 729 _l
_cl}_d
/five{{636 0 77 -13 549 729 _sc
108 729 _m
495 729 _l
495 646 _l
198 646 _l
198 467 _l
212 472 227 476 241 478 _c
255 480 270 482 284 482 _c
365 482 429 459 477 415 _c
525 370 549 310 549 234 _c
549 155 524 94 475 51 _c
426 8 357 -13 269 -13 _c
238 -13 207 -10 175 -6 _c
143 -1 111 6 77 17 _c
77 116 _l
106 100 136 88 168 80 _c
199 72 232 69 267 69 _c
323 69 368 83 401 113 _c
433 143 450 183 450 234 _c
450 284 433 324 401 354 _c
368 384 323 399 267 399 _c
241 399 214 396 188 390 _c
162 384 135 375 108 363 _c
108 729 _l
_cl}_e}_d
/six{{636 0 70 -13 573 742 _sc
330 404 _m
286 404 251 388 225 358 _c
199 328 186 286 186 234 _c
186 181 199 139 225 109 _c
251 79 286 64 330 64 _c
374 64 409 79 435 109 _c
461 139 474 181 474 234 _c
474 286 461 328 435 358 _c
409 388 374 404 330 404 _c
526 713 _m
526 623 _l
501 635 476 644 451 650 _c
425 656 400 659 376 659 _c
310 659 260 637 226 593 _c
192 549 172 482 168 394 _c
187 422 211 444 240 459 _c
269 474 301 482 336 482 _c
409 482 467 459 509 415 _c
551 371 573 310 573 234 _c
573 159 550 99 506 54 _c
462 9 403 -13 330 -13 _c
246 -13 181 19 137 83 _c
92 147 70 241 70 364 _c
70 479 97 571 152 639 _c
206 707 280 742 372 742 _c
}_e{396 742 421 739 447 735 _c
472 730 498 723 526 713 _c
_cl}_e}_d
/seven{636 0 82 0 551 729 _sc
82 729 _m
551 729 _l
551 687 _l
286 0 _l
183 0 _l
432 646 _l
82 646 _l
82 729 _l
_cl}_d
/eight{{636 0 68 -13 568 742 _sc
318 346 _m
271 346 234 333 207 308 _c
180 283 167 249 167 205 _c
167 161 180 126 207 101 _c
234 76 271 64 318 64 _c
364 64 401 76 428 102 _c
455 127 469 161 469 205 _c
469 249 455 283 429 308 _c
402 333 365 346 318 346 _c
219 388 _m
177 398 144 418 120 447 _c
96 476 85 511 85 553 _c
85 611 105 657 147 691 _c
188 725 245 742 318 742 _c
390 742 447 725 489 691 _c
530 657 551 611 551 553 _c
551 511 539 476 515 447 _c
491 418 459 398 417 388 _c
464 377 501 355 528 323 _c
554 291 568 251 568 205 _c
568 134 546 80 503 43 _c
459 5 398 -13 318 -13 _c
237 -13 175 5 132 43 _c
89 80 68 134 68 205 _c
68 251 81 291 108 323 _c
134 355 171 377 219 388 _c
}_e{183 544 _m
183 506 194 476 218 455 _c
242 434 275 424 318 424 _c
360 424 393 434 417 455 _c
441 476 453 506 453 544 _c
453 582 441 611 417 632 _c
393 653 360 664 318 664 _c
275 664 242 653 218 632 _c
194 611 183 582 183 544 _c
_cl}_e}_d
/nine{{636 0 63 -13 566 742 _sc
110 15 _m
110 105 _l
134 93 159 84 185 78 _c
210 72 235 69 260 69 _c
324 69 374 90 408 134 _c
442 178 462 244 468 334 _c
448 306 424 284 396 269 _c
367 254 335 247 300 247 _c
226 247 168 269 126 313 _c
84 357 63 417 63 494 _c
63 568 85 628 129 674 _c
173 719 232 742 306 742 _c
390 742 455 709 499 645 _c
543 580 566 486 566 364 _c
566 248 538 157 484 89 _c
429 21 356 -13 264 -13 _c
239 -13 214 -10 189 -6 _c
163 -2 137 5 110 15 _c
306 324 _m
350 324 385 339 411 369 _c
437 399 450 441 450 494 _c
450 546 437 588 411 618 _c
385 648 350 664 306 664 _c
262 664 227 648 201 618 _c
175 588 162 546 162 494 _c
}_e{162 441 175 399 201 369 _c
227 339 262 324 306 324 _c
_cl}_e}_d
/A{684 0 8 0 676 729 _sc
342 632 _m
208 269 _l
476 269 _l
342 632 _l
286 729 _m
398 729 _l
676 0 _l
573 0 _l
507 187 _l
178 187 _l
112 0 _l
8 0 _l
286 729 _l
_cl}_d
/B{{686 0 98 0 615 729 _sc
197 348 _m
197 81 _l
355 81 _l
408 81 447 92 473 114 _c
498 136 511 169 511 215 _c
511 260 498 293 473 315 _c
447 337 408 348 355 348 _c
197 348 _l
197 648 _m
197 428 _l
343 428 _l
391 428 426 437 450 455 _c
474 473 486 500 486 538 _c
486 574 474 602 450 620 _c
426 638 391 648 343 648 _c
197 648 _l
98 729 _m
350 729 _l
425 729 483 713 524 682 _c
564 650 585 606 585 549 _c
585 504 574 468 553 442 _c
532 416 502 399 462 393 _c
510 382 548 360 575 327 _c
601 294 615 253 615 204 _c
615 138 592 88 548 53 _c
504 17 441 0 360 0 _c
98 0 _l
98 729 _l
}_e{_cl}_e}_d
/D{770 0 98 0 711 729 _sc
197 648 _m
197 81 _l
316 81 _l
416 81 490 103 537 149 _c
583 195 607 267 607 365 _c
607 463 583 534 537 580 _c
490 625 416 648 316 648 _c
197 648 _l
98 729 _m
301 729 _l
442 729 546 699 612 641 _c
678 582 711 490 711 365 _c
711 239 677 147 611 88 _c
545 29 441 0 301 0 _c
98 0 _l
98 729 _l
_cl}_d
/E{632 0 98 0 568 729 _sc
98 729 _m
559 729 _l
559 646 _l
197 646 _l
197 430 _l
544 430 _l
544 347 _l
197 347 _l
197 83 _l
568 83 _l
568 0 _l
98 0 _l
98 729 _l
_cl}_d
/F{575 0 98 0 517 729 _sc
98 729 _m
517 729 _l
517 646 _l
197 646 _l
197 431 _l
486 431 _l
486 348 _l
197 348 _l
197 0 _l
98 0 _l
98 729 _l
_cl}_d
/G{{775 0 56 -13 693 742 _sc
595 104 _m
595 300 _l
434 300 _l
434 381 _l
693 381 _l
693 68 _l
655 40 613 20 567 7 _c
521 -6 472 -13 420 -13 _c
306 -13 216 20 152 86 _c
88 152 56 245 56 364 _c
56 482 88 575 152 642 _c
216 708 306 742 420 742 _c
467 742 512 736 555 724 _c
598 712 638 695 674 673 _c
674 568 _l
637 598 598 621 557 637 _c
516 653 473 661 428 661 _c
338 661 271 636 227 586 _c
182 536 160 462 160 364 _c
160 265 182 191 227 141 _c
271 91 338 67 428 67 _c
462 67 493 70 521 76 _c
549 82 573 91 595 104 _c
_cl}_e}_d
/J{295 0 -51 -199 197 729 _sc
98 729 _m
197 729 _l
197 51 _l
197 -36 180 -99 147 -139 _c
113 -179 60 -199 -13 -199 _c
-51 -199 _l
-51 -116 _l
-20 -116 _l
22 -116 53 -103 71 -79 _c
89 -55 98 -11 98 51 _c
98 729 _l
_cl}_d
/L{557 0 98 0 552 729 _sc
98 729 _m
197 729 _l
197 83 _l
552 83 _l
552 0 _l
98 0 _l
98 729 _l
_cl}_d
/N{748 0 98 0 650 729 _sc
98 729 _m
231 729 _l
554 119 _l
554 729 _l
650 729 _l
650 0 _l
517 0 _l
194 610 _l
194 0 _l
98 0 _l
98 729 _l
_cl}_d
/O{787 0 56 -13 731 742 _sc
394 662 _m
322 662 265 635 223 582 _c
181 528 160 456 160 364 _c
160 272 181 199 223 146 _c
265 92 322 66 394 66 _c
465 66 522 92 564 146 _c
606 199 627 272 627 364 _c
627 456 606 528 564 582 _c
522 635 465 662 394 662 _c
394 742 _m
496 742 577 707 639 639 _c
700 571 731 479 731 364 _c
731 248 700 157 639 89 _c
577 21 496 -13 394 -13 _c
291 -13 209 21 148 89 _c
86 157 56 248 56 364 _c
56 479 86 571 148 639 _c
209 707 291 742 394 742 _c
_cl}_d
/P{603 0 98 0 569 729 _sc
197 648 _m
197 374 _l
321 374 _l
367 374 402 385 427 409 _c
452 433 465 467 465 511 _c
465 555 452 588 427 612 _c
402 636 367 648 321 648 _c
197 648 _l
98 729 _m
321 729 _l
402 729 464 710 506 673 _c
548 636 569 582 569 511 _c
569 439 548 384 506 348 _c
464 311 402 293 321 293 _c
197 293 _l
197 0 _l
98 0 _l
98 729 _l
_cl}_d
/S{{635 0 66 -13 579 742 _sc
535 705 _m
535 609 _l
497 627 462 640 429 649 _c
395 657 363 662 333 662 _c
279 662 237 651 208 631 _c
179 610 165 580 165 542 _c
165 510 174 485 194 469 _c
213 452 250 439 304 429 _c
364 417 _l
437 403 491 378 526 343 _c
561 307 579 260 579 201 _c
579 130 555 77 508 41 _c
460 5 391 -13 300 -13 _c
265 -13 228 -9 189 -2 _c
150 5 110 16 69 32 _c
69 134 _l
109 111 148 94 186 83 _c
224 71 262 66 300 66 _c
356 66 399 77 430 99 _c
460 121 476 152 476 194 _c
476 230 465 258 443 278 _c
421 298 385 313 335 323 _c
275 335 _l
201 349 148 372 115 404 _c
82 435 66 478 66 534 _c
66 598 88 649 134 686 _c
179 723 242 742 322 742 _c
}_e{356 742 390 739 426 733 _c
461 727 497 717 535 705 _c
_cl}_e}_d
/T{611 0 -2 0 614 729 _sc
-2 729 _m
614 729 _l
614 646 _l
355 646 _l
355 0 _l
256 0 _l
256 646 _l
-2 646 _l
-2 729 _l
_cl}_d
/V{684 0 8 0 676 729 _sc
286 0 _m
8 729 _l
111 729 _l
342 115 _l
573 729 _l
676 729 _l
398 0 _l
286 0 _l
_cl}_d
/Y{611 0 -1 0 613 729 _sc
-1 729 _m
104 729 _l
306 429 _l
507 729 _l
613 729 _l
355 347 _l
355 0 _l
256 0 _l
256 347 _l
-1 729 _l
_cl}_d
/a{{613 0 60 -13 522 560 _sc
343 275 _m
270 275 220 266 192 250 _c
164 233 150 205 150 165 _c
150 133 160 107 181 89 _c
202 70 231 61 267 61 _c
317 61 357 78 387 114 _c
417 149 432 196 432 255 _c
432 275 _l
343 275 _l
522 312 _m
522 0 _l
432 0 _l
432 83 _l
411 49 385 25 355 10 _c
325 -5 287 -13 243 -13 _c
187 -13 142 2 109 33 _c
76 64 60 106 60 159 _c
60 220 80 266 122 298 _c
163 329 224 345 306 345 _c
432 345 _l
432 354 _l
432 395 418 427 391 450 _c
364 472 326 484 277 484 _c
245 484 215 480 185 472 _c
155 464 127 453 100 439 _c
100 522 _l
}_e{132 534 164 544 195 550 _c
226 556 256 560 286 560 _c
365 560 424 539 463 498 _c
502 457 522 395 522 312 _c
_cl}_e}_d
/b{{635 0 91 -13 580 760 _sc
487 273 _m
487 339 473 390 446 428 _c
418 466 381 485 334 485 _c
286 485 249 466 222 428 _c
194 390 181 339 181 273 _c
181 207 194 155 222 117 _c
249 79 286 61 334 61 _c
381 61 418 79 446 117 _c
473 155 487 207 487 273 _c
181 464 _m
199 496 223 520 252 536 _c
281 552 316 560 356 560 _c
422 560 476 533 518 481 _c
559 428 580 359 580 273 _c
580 187 559 117 518 65 _c
476 13 422 -13 356 -13 _c
316 -13 281 -5 252 10 _c
223 25 199 49 181 82 _c
181 0 _l
91 0 _l
91 760 _l
181 760 _l
181 464 _l
_cl}_e}_d
/c{{550 0 55 -13 488 560 _sc
488 526 _m
488 442 _l
462 456 437 466 411 473 _c
385 480 360 484 334 484 _c
276 484 230 465 198 428 _c
166 391 150 339 150 273 _c
150 206 166 154 198 117 _c
230 80 276 62 334 62 _c
360 62 385 65 411 72 _c
437 79 462 90 488 104 _c
488 21 _l
462 9 436 0 410 -5 _c
383 -10 354 -13 324 -13 _c
242 -13 176 12 128 64 _c
79 115 55 185 55 273 _c
55 362 79 432 128 483 _c
177 534 244 560 330 560 _c
358 560 385 557 411 551 _c
437 545 463 537 488 526 _c
_cl}_e}_d
/d{{635 0 55 -13 544 760 _sc
454 464 _m
454 760 _l
544 760 _l
544 0 _l
454 0 _l
454 82 _l
435 49 411 25 382 10 _c
353 -5 319 -13 279 -13 _c
213 -13 159 13 117 65 _c
75 117 55 187 55 273 _c
55 359 75 428 117 481 _c
159 533 213 560 279 560 _c
319 560 353 552 382 536 _c
411 520 435 496 454 464 _c
148 273 _m
148 207 161 155 188 117 _c
215 79 253 61 301 61 _c
348 61 385 79 413 117 _c
440 155 454 207 454 273 _c
454 339 440 390 413 428 _c
385 466 348 485 301 485 _c
253 485 215 466 188 428 _c
161 390 148 339 148 273 _c
_cl}_e}_d
/e{{615 0 55 -13 562 560 _sc
562 296 _m
562 252 _l
149 252 _l
153 190 171 142 205 110 _c
238 78 284 62 344 62 _c
378 62 412 66 444 74 _c
476 82 509 95 541 113 _c
541 28 _l
509 14 476 3 442 -3 _c
408 -9 373 -13 339 -13 _c
251 -13 182 12 131 62 _c
80 112 55 181 55 268 _c
55 357 79 428 127 481 _c
175 533 241 560 323 560 _c
397 560 455 536 498 489 _c
540 441 562 377 562 296 _c
472 322 _m
471 371 457 410 431 440 _c
404 469 368 484 324 484 _c
274 484 234 469 204 441 _c
174 413 156 373 152 322 _c
472 322 _l
_cl}_e}_d
/g{{635 0 55 -207 544 560 _sc
454 280 _m
454 344 440 395 414 431 _c
387 467 349 485 301 485 _c
253 485 215 467 188 431 _c
161 395 148 344 148 280 _c
148 215 161 165 188 129 _c
215 93 253 75 301 75 _c
349 75 387 93 414 129 _c
440 165 454 215 454 280 _c
544 68 _m
544 -24 523 -93 482 -139 _c
440 -184 377 -207 292 -207 _c
260 -207 231 -204 203 -200 _c
175 -195 147 -188 121 -178 _c
121 -91 _l
147 -105 173 -115 199 -122 _c
225 -129 251 -133 278 -133 _c
336 -133 380 -117 410 -87 _c
439 -56 454 -10 454 52 _c
454 96 _l
435 64 411 40 382 24 _c
353 8 319 0 279 0 _c
211 0 157 25 116 76 _c
75 127 55 195 55 280 _c
55 364 75 432 116 483 _c
157 534 211 560 279 560 _c
}_e{319 560 353 552 382 536 _c
411 520 435 496 454 464 _c
454 547 _l
544 547 _l
544 68 _l
_cl}_e}_d
/h{634 0 91 0 549 760 _sc
549 330 _m
549 0 _l
459 0 _l
459 327 _l
459 379 448 417 428 443 _c
408 469 378 482 338 482 _c
289 482 251 466 223 435 _c
195 404 181 362 181 309 _c
181 0 _l
91 0 _l
91 760 _l
181 760 _l
181 462 _l
202 494 227 519 257 535 _c
286 551 320 560 358 560 _c
420 560 468 540 500 501 _c
532 462 549 405 549 330 _c
_cl}_d
/i{278 0 94 0 184 760 _sc
94 547 _m
184 547 _l
184 0 _l
94 0 _l
94 547 _l
94 760 _m
184 760 _l
184 646 _l
94 646 _l
94 760 _l
_cl}_d
/k{579 0 91 0 576 760 _sc
91 760 _m
181 760 _l
181 311 _l
449 547 _l
564 547 _l
274 291 _l
576 0 _l
459 0 _l
181 267 _l
181 0 _l
91 0 _l
91 760 _l
_cl}_d
/l{278 0 94 0 184 760 _sc
94 760 _m
184 760 _l
184 0 _l
94 0 _l
94 760 _l
_cl}_d
/m{{974 0 91 0 889 560 _sc
520 442 _m
542 482 569 511 600 531 _c
631 550 668 560 711 560 _c
767 560 811 540 842 500 _c
873 460 889 403 889 330 _c
889 0 _l
799 0 _l
799 327 _l
799 379 789 418 771 444 _c
752 469 724 482 686 482 _c
639 482 602 466 575 435 _c
548 404 535 362 535 309 _c
535 0 _l
445 0 _l
445 327 _l
445 379 435 418 417 444 _c
398 469 369 482 331 482 _c
285 482 248 466 221 435 _c
194 404 181 362 181 309 _c
181 0 _l
91 0 _l
91 547 _l
181 547 _l
181 462 _l
201 495 226 520 255 536 _c
283 552 317 560 357 560 _c
397 560 430 550 458 530 _c
486 510 506 480 520 442 _c
}_e{_cl}_e}_d
/n{634 0 91 0 549 560 _sc
549 330 _m
549 0 _l
459 0 _l
459 327 _l
459 379 448 417 428 443 _c
408 469 378 482 338 482 _c
289 482 251 466 223 435 _c
195 404 181 362 181 309 _c
181 0 _l
91 0 _l
91 547 _l
181 547 _l
181 462 _l
202 494 227 519 257 535 _c
286 551 320 560 358 560 _c
420 560 468 540 500 501 _c
532 462 549 405 549 330 _c
_cl}_d
/o{612 0 55 -13 557 560 _sc
306 484 _m
258 484 220 465 192 427 _c
164 389 150 338 150 273 _c
150 207 163 156 191 118 _c
219 80 257 62 306 62 _c
354 62 392 80 420 118 _c
448 156 462 207 462 273 _c
462 337 448 389 420 427 _c
392 465 354 484 306 484 _c
306 560 _m
384 560 445 534 490 484 _c
534 433 557 363 557 273 _c
557 183 534 113 490 63 _c
445 12 384 -13 306 -13 _c
227 -13 165 12 121 63 _c
77 113 55 183 55 273 _c
55 363 77 433 121 484 _c
165 534 227 560 306 560 _c
_cl}_d
/p{{635 0 91 -207 580 560 _sc
181 82 _m
181 -207 _l
91 -207 _l
91 547 _l
181 547 _l
181 464 _l
199 496 223 520 252 536 _c
281 552 316 560 356 560 _c
422 560 476 533 518 481 _c
559 428 580 359 580 273 _c
580 187 559 117 518 65 _c
476 13 422 -13 356 -13 _c
316 -13 281 -5 252 10 _c
223 25 199 49 181 82 _c
487 273 _m
487 339 473 390 446 428 _c
418 466 381 485 334 485 _c
286 485 249 466 222 428 _c
194 390 181 339 181 273 _c
181 207 194 155 222 117 _c
249 79 286 61 334 61 _c
381 61 418 79 446 117 _c
473 155 487 207 487 273 _c
_cl}_e}_d
/r{411 0 91 0 411 560 _sc
411 463 _m
401 469 390 473 378 476 _c
366 478 353 480 339 480 _c
288 480 249 463 222 430 _c
194 397 181 350 181 288 _c
181 0 _l
91 0 _l
91 547 _l
181 547 _l
181 462 _l
199 495 224 520 254 536 _c
284 552 321 560 365 560 _c
371 560 378 559 386 559 _c
393 558 401 557 411 555 _c
411 463 _l
_cl}_d
/s{{521 0 54 -13 472 560 _sc
443 531 _m
443 446 _l
417 458 391 468 364 475 _c
336 481 308 485 279 485 _c
234 485 200 478 178 464 _c
156 450 145 430 145 403 _c
145 382 153 366 169 354 _c
185 342 217 330 265 320 _c
296 313 _l
360 299 405 279 432 255 _c
458 230 472 195 472 151 _c
472 100 452 60 412 31 _c
372 1 316 -13 246 -13 _c
216 -13 186 -10 154 -5 _c
122 0 89 8 54 20 _c
54 113 _l
87 95 120 82 152 74 _c
184 65 216 61 248 61 _c
290 61 323 68 346 82 _c
368 96 380 117 380 144 _c
380 168 371 187 355 200 _c
339 213 303 226 247 238 _c
216 245 _l
160 257 119 275 95 299 _c
70 323 58 356 58 399 _c
58 450 76 490 112 518 _c
148 546 200 560 268 560 _c
}_e{301 560 332 557 362 552 _c
391 547 418 540 443 531 _c
_cl}_e}_d
/t{392 0 27 0 368 702 _sc
183 702 _m
183 547 _l
368 547 _l
368 477 _l
183 477 _l
183 180 _l
183 135 189 106 201 94 _c
213 81 238 75 276 75 _c
368 75 _l
368 0 _l
276 0 _l
206 0 158 13 132 39 _c
106 65 93 112 93 180 _c
93 477 _l
27 477 _l
27 547 _l
93 547 _l
93 702 _l
183 702 _l
_cl}_d
/u{634 0 85 -13 543 547 _sc
85 216 _m
85 547 _l
175 547 _l
175 219 _l
175 167 185 129 205 103 _c
225 77 255 64 296 64 _c
344 64 383 79 411 110 _c
439 141 453 183 453 237 _c
453 547 _l
543 547 _l
543 0 _l
453 0 _l
453 84 _l
431 50 405 26 377 10 _c
348 -5 315 -13 277 -13 _c
214 -13 166 6 134 45 _c
101 83 85 140 85 216 _c
_cl}_d
/v{592 0 30 0 562 547 _sc
30 547 _m
125 547 _l
296 88 _l
467 547 _l
562 547 _l
357 0 _l
235 0 _l
30 547 _l
_cl}_d
/w{818 0 42 0 776 547 _sc
42 547 _m
132 547 _l
244 120 _l
356 547 _l
462 547 _l
574 120 _l
686 547 _l
776 547 _l
633 0 _l
527 0 _l
409 448 _l
291 0 _l
185 0 _l
42 547 _l
_cl}_d
/y{592 0 30 -207 562 547 _sc
322 -50 _m
296 -114 271 -157 247 -177 _c
223 -197 191 -207 151 -207 _c
79 -207 _l
79 -132 _l
132 -132 _l
156 -132 175 -126 189 -114 _c
203 -102 218 -75 235 -31 _c
251 9 _l
30 547 _l
125 547 _l
296 119 _l
467 547 _l
562 547 _l
322 -50 _l
_cl}_d
/minus{838 0 106 272 732 355 _sc
106 355 _m
732 355 _l
732 272 _l
106 272 _l
106 355 _l
_cl}_d
end readonly def

/BuildGlyph
 {exch begin
 CharStrings exch
 2 copy known not{pop /.notdef}if
 true 3 1 roll get exec
 end}_d

/BuildChar {
 1 index /Encoding get exch get
 1 index /BuildGlyph get exec
}_d

FontName currentdict end definefont pop
end
%%EndProlog
mpldict begin
18 180 translate
576 432 0 0 clipbox
gsave
0 0 m
576 0 l
576 432 l
0 432 l
cl
1.000 setgray
fill
grestore
gsave
72 43.2 m
518.4 43.2 l
518.4 388.8 l
72 388.8 l
cl
1.000 setgray
fill
grestore
/p0_0 {
newpath
translate
123.017 287.718 m
123.017 287.718 l
148.526 235.765 l
174.034 223.906 l
199.543 197.929 l
225.051 200.188 l
250.56 187.2 l
276.069 190.024 l
301.577 182.118 l
327.086 173.082 l
352.594 171.388 l
378.103 167.435 l
403.611 162.918 l
429.12 158.4 l
454.629 153.882 l
480.137 148.8 l
480.137 188.329 l
480.137 188.329 l
454.629 190.024 l
429.12 190.588 l
403.611 191.718 l
378.103 192.847 l
352.594 194.541 l
327.086 196.235 l
301.577 198.494 l
276.069 201.882 l
250.56 205.271 l
225.051 215.435 l
199.543 230.682 l
174.034 247.624 l
148.526 248.188 l
123.017 287.718 l
cl
} bind def
1.000 setlinewidth
1 setlinejoin
0 setlinecap
[] 0 setdash
0.750 setgray
gsave
446.4 345.6 72 43.2 clipbox
0 0 p0_0
gsave
fill
grestore
stroke
grestore
/p1_0 {
newpath
translate
123.017 321.035 m
123.017 321.035 l
148.526 287.153 l
174.034 270.776 l
199.543 247.624 l
225.051 250.447 l
250.56 238.024 l
276.069 240.282 l
301.577 232.941 l
327.086 234.635 l
352.594 232.941 l
365.349 228.988 l
378.103 228.988 l
403.611 224.471 l
429.12 219.388 l
454.629 216 l
480.137 210.918 l
480.137 236.894 l
480.137 236.894 l
454.629 238.024 l
429.12 238.588 l
403.611 239.153 l
378.103 240.847 l
365.349 228.988 l
352.594 241.976 l
327.086 243.671 l
301.577 243.671 l
276.069 249.882 l
250.56 261.176 l
225.051 274.165 l
199.543 286.024 l
174.034 304.659 l
148.526 287.153 l
123.017 321.035 l
cl
} bind def
gsave
446.4 345.6 72 43.2 clipbox
0 0 p1_0
gsave
fill
grestore
stroke
grestore
2 setlinecap
0.000 0.500 0.000 setrgbcolor
gsave
446.4 345.6 72 43.2 clipbox
110.263 381.312 m
123.017 353.088 l
135.771 320.832 l
148.526 298.944 l
161.28 286.848 l
174.034 279.936 l
186.789 275.904 l
199.543 274.176 l
212.297 272.448 l
225.051 268.416 l
237.806 264.384 l
250.56 263.232 l
263.314 259.2 l
276.069 257.472 l
288.823 256.896 l
301.577 254.016 l
314.331 251.712 l
327.086 248.832 l
339.84 247.68 l
352.594 246.528 l
365.349 244.8 l
378.103 241.92 l
390.857 242.496 l
stroke
grestore
0.500 setlinewidth
0 setlinecap
0.000 setgray
gsave
446.4 345.6 72 43.2 clipbox
/o {
gsave
newpath
translate
0 -3 m
0.795609 -3 1.55874 -2.6839 2.12132 -2.12132 c
2.6839 -1.55874 3 -0.795609 3 0 c
3 0.795609 2.6839 1.55874 2.12132 2.12132 c
1.55874 2.6839 0.795609 3 0 3 c
-0.795609 3 -1.55874 2.6839 -2.12132 2.12132 c
-2.6839 1.55874 -3 0.795609 -3 0 c
-3 -0.795609 -2.6839 -1.55874 -2.12132 -2.12132 c
-1.55874 -2.6839 -0.795609 -3 0 -3 c
cl
gsave
0.000 0.500 0.000 setrgbcolor
fill
grestore
stroke
grestore
} bind def
110.263 381.312 o
123.017 353.088 o
135.771 320.832 o
148.526 298.944 o
161.28 286.848 o
174.034 279.936 o
186.789 275.904 o
199.543 274.176 o
212.297 272.448 o
225.051 268.416 o
237.806 264.384 o
250.56 263.232 o
263.314 259.2 o
276.069 257.472 o
288.823 256.896 o
301.577 254.016 o
314.331 251.712 o
327.086 248.832 o
339.84 247.68 o
352.594 246.528 o
365.349 244.8 o
378.103 241.92 o
390.857 242.496 o
grestore
1.000 setlinewidth
2 setlinecap
1.000 0.000 0.000 setrgbcolor
gsave
446.4 345.6 72 43.2 clipbox
110.263 189.009 m
123.017 232.366 l
135.771 172.075 l
148.526 179.193 l
161.28 127.798 l
174.034 164.968 l
186.789 154.354 l
199.543 134.929 l
212.297 92.4145 l
225.051 144.225 l
237.806 143.991 l
250.56 137.174 l
263.314 132.204 l
276.069 126.396 l
288.823 128.187 l
301.577 120.687 l
314.331 120.844 l
327.086 113.889 l
339.84 112.737 l
352.594 116.409 l
365.349 66.7438 l
378.103 108.221 l
390.857 100.288 l
stroke
grestore
0.500 setlinewidth
0 setlinecap
0.000 setgray
gsave
446.4 345.6 72 43.2 clipbox
/o {
gsave
newpath
translate
0 -3 m
0.795609 -3 1.55874 -2.6839 2.12132 -2.12132 c
2.6839 -1.55874 3 -0.795609 3 0 c
3 0.795609 2.6839 1.55874 2.12132 2.12132 c
1.55874 2.6839 0.795609 3 0 3 c
-0.795609 3 -1.55874 2.6839 -2.12132 2.12132 c
-2.6839 1.55874 -3 0.795609 -3 0 c
-3 -0.795609 -2.6839 -1.55874 -2.12132 -2.12132 c
-1.55874 -2.6839 -0.795609 -3 0 -3 c
cl
gsave
1.000 0.000 0.000 setrgbcolor
fill
grestore
stroke
grestore
} bind def
110.263 189.009 o
123.017 232.366 o
135.771 172.075 o
148.526 179.193 o
161.28 127.798 o
174.034 164.968 o
186.789 154.354 o
199.543 134.929 o
212.297 92.4145 o
225.051 144.225 o
237.806 143.991 o
250.56 137.174 o
263.314 132.204 o
276.069 126.396 o
288.823 128.187 o
301.577 120.687 o
314.331 120.844 o
327.086 113.889 o
339.84 112.737 o
352.594 116.409 o
365.349 66.7438 o
378.103 108.221 o
390.857 100.288 o
grestore
1.000 setlinewidth
2 setlinecap
1.000 0.000 0.000 setrgbcolor
gsave
446.4 345.6 72 43.2 clipbox
110.263 261.034 m
123.017 254.312 l
135.771 212.167 l
148.526 215.167 l
161.28 213.068 l
174.034 198.712 l
186.789 188.877 l
199.543 169.767 l
212.297 180.954 l
225.051 181.469 l
237.806 180.599 l
250.56 175.468 l
263.314 169.18 l
276.069 164.731 l
288.823 168.219 l
301.577 159.372 l
314.331 159.522 l
327.086 152.677 l
339.84 151.244 l
352.594 155.617 l
365.349 163.434 l
378.103 152.073 l
390.857 150.116 l
stroke
grestore
0.500 setlinewidth
0 setlinecap
0.000 setgray
gsave
446.4 345.6 72 43.2 clipbox
/o {
gsave
newpath
translate
-3 -3 m
3 -3 l
3 3 l
-3 3 l
cl
gsave
1.000 0.000 0.000 setrgbcolor
fill
grestore
stroke
grestore
} bind def
110.263 261.034 o
123.017 254.312 o
135.771 212.167 o
148.526 215.167 o
161.28 213.068 o
174.034 198.712 o
186.789 188.877 o
199.543 169.767 o
212.297 180.954 o
225.051 181.469 o
237.806 180.599 o
250.56 175.468 o
263.314 169.18 o
276.069 164.731 o
288.823 168.219 o
301.577 159.372 o
314.331 159.522 o
327.086 152.677 o
339.84 151.244 o
352.594 155.617 o
365.349 163.434 o
378.103 152.073 o
390.857 150.116 o
grestore
1.000 setlinewidth
2 setlinecap
0.000 0.000 1.000 setrgbcolor
gsave
446.4 345.6 72 43.2 clipbox
110.263 294.937 m
135.771 290.281 l
148.526 264.04 l
161.28 246.057 l
174.034 240.466 l
186.789 234.064 l
199.543 225.595 l
212.297 217.902 l
225.051 229.948 l
237.806 226.137 l
250.56 225.273 l
263.314 222.811 l
276.069 214.197 l
288.823 222.113 l
301.577 208.609 l
314.331 209.308 l
327.086 201.445 l
339.84 201.635 l
352.594 206.66 l
365.349 205.678 l
378.103 197.953 l
390.857 200.962 l
stroke
grestore
0.500 setlinewidth
0 setlinecap
0.000 setgray
gsave
446.4 345.6 72 43.2 clipbox
/o {
gsave
newpath
translate
0 -3 m
0.795609 -3 1.55874 -2.6839 2.12132 -2.12132 c
2.6839 -1.55874 3 -0.795609 3 0 c
3 0.795609 2.6839 1.55874 2.12132 2.12132 c
1.55874 2.6839 0.795609 3 0 3 c
-0.795609 3 -1.55874 2.6839 -2.12132 2.12132 c
-2.6839 1.55874 -3 0.795609 -3 0 c
-3 -0.795609 -2.6839 -1.55874 -2.12132 -2.12132 c
-1.55874 -2.6839 -0.795609 -3 0 -3 c
cl
gsave
0.000 0.000 1.000 setrgbcolor
fill
grestore
stroke
grestore
} bind def
110.263 294.937 o
135.771 290.281 o
148.526 264.04 o
161.28 246.057 o
174.034 240.466 o
186.789 234.064 o
199.543 225.595 o
212.297 217.902 o
225.051 229.948 o
237.806 226.137 o
250.56 225.273 o
263.314 222.811 o
276.069 214.197 o
288.823 222.113 o
301.577 208.609 o
314.331 209.308 o
327.086 201.445 o
339.84 201.635 o
352.594 206.66 o
365.349 205.678 o
378.103 197.953 o
390.857 200.962 o
grestore
gsave
446.4 345.6 72 43.2 clipbox
/o {
gsave
newpath
translate
-3.33067e-16 -4.24264 m
4.24264 0 l
5.55112e-16 4.24264 l
-4.24264 8.88178e-16 l
cl
gsave
0.000 setgray
fill
grestore
stroke
grestore
} bind def
174.034 247.624 o
199.543 230.682 o
225.051 215.435 o
250.56 201.318 o
276.069 193.976 o
301.577 182.118 o
327.086 173.082 o
352.594 171.388 o
378.103 167.435 o
403.611 162.918 o
429.12 158.4 o
454.629 153.882 o
480.137 148.8 o
grestore
gsave
446.4 345.6 72 43.2 clipbox
/o {
gsave
newpath
translate
-3 -3 m
3 -3 l
3 3 l
-3 3 l
cl
gsave
0.000 setgray
fill
grestore
stroke
grestore
} bind def
148.526 235.765 o
174.034 223.906 o
199.543 197.929 o
225.051 200.188 o
250.56 187.2 o
276.069 190.024 o
301.577 182.682 o
327.086 183.812 o
352.594 180.988 o
378.103 182.118 o
403.611 179.294 o
429.12 180.988 o
454.629 178.165 o
480.137 179.294 o
grestore
gsave
446.4 345.6 72 43.2 clipbox
/o {
gsave
newpath
translate
-1.5 2.59808 m
-3 1.33227e-15 l
-1.5 -2.59808 l
1.5 -2.59808 l
3 -1.77636e-15 l
1.5 2.59808 l
cl
gsave
0.000 setgray
fill
grestore
stroke
grestore
} bind def
250.56 203.012 o
276.069 194.541 o
301.577 187.765 o
327.086 183.247 o
352.594 180.988 o
378.103 173.082 o
403.611 177.035 o
429.12 174.212 o
454.629 173.647 o
480.137 168.565 o
grestore
gsave
446.4 345.6 72 43.2 clipbox
/o {
gsave
newpath
translate
0 3 m
-3 -3 l
3 -3 l
cl
gsave
0.000 setgray
fill
grestore
stroke
grestore
} bind def
199.543 218.824 o
225.051 209.788 o
250.56 199.624 o
276.069 193.412 o
301.577 190.588 o
327.086 187.2 o
352.594 186.071 o
378.103 184.376 o
403.611 184.376 o
429.12 181.553 o
454.629 181.553 o
480.137 181.553 o
grestore
gsave
446.4 345.6 72 43.2 clipbox
/o {
gsave
newpath
translate
-3.67394e-16 -3 m
3 3 l
-3 3 l
cl
gsave
0.000 setgray
fill
grestore
stroke
grestore
} bind def
123.017 287.718 o
148.526 248.188 o
174.034 229.553 o
199.543 218.259 o
225.051 210.353 o
250.56 205.271 o
276.069 201.882 o
301.577 198.494 o
327.086 196.235 o
352.594 194.541 o
378.103 192.847 o
403.611 191.718 o
429.12 190.588 o
454.629 190.024 o
480.137 188.329 o
grestore
gsave
446.4 345.6 72 43.2 clipbox
/o {
gsave
newpath
translate
-3.33067e-16 -4.24264 m
4.24264 0 l
5.55112e-16 4.24264 l
-4.24264 8.88178e-16 l
cl
gsave
0.000 setgray
fill
grestore
stroke
grestore
} bind def
174.034 304.659 o
199.543 286.024 o
225.051 274.165 o
250.56 261.176 o
276.069 249.882 o
301.577 242.541 o
327.086 235.2 o
352.594 232.941 o
378.103 228.988 o
403.611 224.471 o
429.12 219.388 o
454.629 216 o
480.137 210.918 o
grestore
gsave
446.4 345.6 72 43.2 clipbox
/o {
gsave
newpath
translate
-3 -3 m
3 -3 l
3 3 l
-3 3 l
cl
gsave
0.000 setgray
fill
grestore
stroke
grestore
} bind def
174.034 270.776 o
199.543 247.624 o
225.051 250.447 o
250.56 238.024 o
276.069 240.282 o
301.577 232.941 o
327.086 234.635 o
352.594 238.024 o
378.103 228.988 o
403.611 234.071 o
429.12 230.682 o
454.629 228.424 o
480.137 229.553 o
grestore
gsave
446.4 345.6 72 43.2 clipbox
/o {
gsave
newpath
translate
-1.5 2.59808 m
-3 1.33227e-15 l
-1.5 -2.59808 l
1.5 -2.59808 l
3 -1.77636e-15 l
1.5 2.59808 l
cl
gsave
0.000 setgray
fill
grestore
stroke
grestore
} bind def
250.56 256.659 o
276.069 249.882 o
301.577 243.106 o
327.086 234.635 o
352.594 238.024 o
365.349 228.988 o
403.611 233.506 o
429.12 230.682 o
454.629 230.682 o
480.137 225.6 o
grestore
gsave
446.4 345.6 72 43.2 clipbox
/o {
gsave
newpath
translate
0 3 m
-3 -3 l
3 -3 l
cl
gsave
0.000 setgray
fill
grestore
stroke
grestore
} bind def
199.543 271.341 o
225.051 262.871 o
250.56 252.141 o
276.069 246.494 o
301.577 243.671 o
327.086 240.282 o
352.594 238.588 o
378.103 235.765 o
403.611 235.2 o
429.12 233.506 o
454.629 234.071 o
480.137 233.506 o
grestore
gsave
446.4 345.6 72 43.2 clipbox
/o {
gsave
newpath
translate
-3.67394e-16 -3 m
3 3 l
-3 3 l
cl
gsave
0.000 setgray
fill
grestore
stroke
grestore
} bind def
123.017 321.035 o
148.526 287.153 o
174.034 270.776 o
199.543 262.306 o
225.051 256.094 o
250.56 251.012 o
276.069 247.624 o
327.086 243.671 o
352.594 241.976 o
378.103 240.847 o
403.611 239.153 o
429.12 238.588 o
454.629 238.024 o
480.137 236.894 o
grestore
gsave
/o {
gsave
newpath
translate
0 0 m
0 4 l
gsave
0.000 setgray
fill
grestore
stroke
grestore
} bind def
72 43.2 o
grestore
gsave
/o {
gsave
newpath
translate
0 0 m
0 -4 l
gsave
0.000 setgray
fill
grestore
stroke
grestore
} bind def
72 388.8 o
grestore
/BitstreamVeraSans-Roman findfont
12.000 scalefont
setfont
gsave
68.976562 30.121875 translate
0.000000 rotate
0.000000 0.171875 m /zero glyphshow
grestore
gsave
/o {
gsave
newpath
translate
0 0 m
0 4 l
gsave
0.000 setgray
fill
grestore
stroke
grestore
} bind def
135.771 43.2 o
grestore
gsave
/o {
gsave
newpath
translate
0 0 m
0 -4 l
gsave
0.000 setgray
fill
grestore
stroke
grestore
} bind def
135.771 388.8 o
grestore
gsave
132.935491 30.278125 translate
0.000000 rotate
0.000000 0.171875 m /five glyphshow
grestore
gsave
/o {
gsave
newpath
translate
0 0 m
0 4 l
gsave
0.000 setgray
fill
grestore
stroke
grestore
} bind def
199.543 43.2 o
grestore
gsave
/o {
gsave
newpath
translate
0 0 m
0 -4 l
gsave
0.000 setgray
fill
grestore
stroke
grestore
} bind def
199.543 388.8 o
grestore
gsave
192.956920 30.121875 translate
0.000000 rotate
0.000000 0.171875 m /one glyphshow
7.634766 0.171875 m /zero glyphshow
grestore
gsave
/o {
gsave
newpath
translate
0 0 m
0 4 l
gsave
0.000 setgray
fill
grestore
stroke
grestore
} bind def
263.314 43.2 o
grestore
gsave
/o {
gsave
newpath
translate
0 0 m
0 -4 l
gsave
0.000 setgray
fill
grestore
stroke
grestore
} bind def
263.314 388.8 o
grestore
gsave
256.853348 30.278125 translate
0.000000 rotate
0.000000 0.171875 m /one glyphshow
7.634766 0.171875 m /five glyphshow
grestore
gsave
/o {
gsave
newpath
translate
0 0 m
0 4 l
gsave
0.000 setgray
fill
grestore
stroke
grestore
} bind def
327.086 43.2 o
grestore
gsave
/o {
gsave
newpath
translate
0 0 m
0 -4 l
gsave
0.000 setgray
fill
grestore
stroke
grestore
} bind def
327.086 388.8 o
grestore
gsave
320.281027 30.121875 translate
0.000000 rotate
0.000000 0.171875 m /two glyphshow
7.634766 0.171875 m /zero glyphshow
grestore
gsave
/o {
gsave
newpath
translate
0 0 m
0 4 l
gsave
0.000 setgray
fill
grestore
stroke
grestore
} bind def
390.857 43.2 o
grestore
gsave
/o {
gsave
newpath
translate
0 0 m
0 -4 l
gsave
0.000 setgray
fill
grestore
stroke
grestore
} bind def
390.857 388.8 o
grestore
gsave
384.177455 30.121875 translate
0.000000 rotate
0.000000 0.171875 m /two glyphshow
7.634766 0.171875 m /five glyphshow
grestore
gsave
/o {
gsave
newpath
translate
0 0 m
0 4 l
gsave
0.000 setgray
fill
grestore
stroke
grestore
} bind def
454.629 43.2 o
grestore
gsave
/o {
gsave
newpath
translate
0 0 m
0 -4 l
gsave
0.000 setgray
fill
grestore
stroke
grestore
} bind def
454.629 388.8 o
grestore
gsave
447.847321 30.121875 translate
0.000000 rotate
0.000000 0.171875 m /three glyphshow
7.634766 0.171875 m /zero glyphshow
grestore
gsave
/o {
gsave
newpath
translate
0 0 m
0 4 l
gsave
0.000 setgray
fill
grestore
stroke
grestore
} bind def
518.4 43.2 o
grestore
gsave
/o {
gsave
newpath
translate
0 0 m
0 -4 l
gsave
0.000 setgray
fill
grestore
stroke
grestore
} bind def
518.4 388.8 o
grestore
gsave
511.743750 30.121875 translate
0.000000 rotate
0.000000 0.171875 m /three glyphshow
7.634766 0.171875 m /five glyphshow
grestore
gsave
291.887500 16.371875 translate
0.000000 rotate
0.000000 0.000000 m /N glyphshow
grestore
gsave
/o {
gsave
newpath
translate
0 0 m
4 0 l
gsave
0.000 setgray
fill
grestore
stroke
grestore
} bind def
72 43.2 o
grestore
gsave
/o {
gsave
newpath
translate
0 0 m
-4 0 l
gsave
0.000 setgray
fill
grestore
stroke
grestore
} bind def
518.4 43.2 o
grestore
gsave
44.718750 38.660938 translate
0.000000 rotate
0.000000 0.171875 m /minus glyphshow
10.054688 0.171875 m /one glyphshow
17.689453 0.171875 m /zero glyphshow
grestore
gsave
/o {
gsave
newpath
translate
0 0 m
4 0 l
gsave
0.000 setgray
fill
grestore
stroke
grestore
} bind def
72 100.8 o
grestore
gsave
/o {
gsave
newpath
translate
0 0 m
-4 0 l
gsave
0.000 setgray
fill
grestore
stroke
grestore
} bind def
518.4 100.8 o
grestore
gsave
52.406250 96.260938 translate
0.000000 rotate
0.000000 0.171875 m /minus glyphshow
10.054688 0.171875 m /nine glyphshow
grestore
gsave
/o {
gsave
newpath
translate
0 0 m
4 0 l
gsave
0.000 setgray
fill
grestore
stroke
grestore
} bind def
72 158.4 o
grestore
gsave
/o {
gsave
newpath
translate
0 0 m
-4 0 l
gsave
0.000 setgray
fill
grestore
stroke
grestore
} bind def
518.4 158.4 o
grestore
gsave
52.390625 153.860938 translate
0.000000 rotate
0.000000 0.171875 m /minus glyphshow
10.054688 0.171875 m /eight glyphshow
grestore
gsave
/o {
gsave
newpath
translate
0 0 m
4 0 l
gsave
0.000 setgray
fill
grestore
stroke
grestore
} bind def
72 216 o
grestore
gsave
/o {
gsave
newpath
translate
0 0 m
-4 0 l
gsave
0.000 setgray
fill
grestore
stroke
grestore
} bind def
518.4 216 o
grestore
gsave
52.593750 211.625000 translate
0.000000 rotate
0.000000 0.000000 m /minus glyphshow
10.054688 0.000000 m /seven glyphshow
grestore
gsave
/o {
gsave
newpath
translate
0 0 m
4 0 l
gsave
0.000 setgray
fill
grestore
stroke
grestore
} bind def
72 273.6 o
grestore
gsave
/o {
gsave
newpath
translate
0 0 m
-4 0 l
gsave
0.000 setgray
fill
grestore
stroke
grestore
} bind def
518.4 273.6 o
grestore
gsave
52.328125 269.060938 translate
0.000000 rotate
0.000000 0.171875 m /minus glyphshow
10.054688 0.171875 m /six glyphshow
grestore
gsave
/o {
gsave
newpath
translate
0 0 m
4 0 l
gsave
0.000 setgray
fill
grestore
stroke
grestore
} bind def
72 331.2 o
grestore
gsave
/o {
gsave
newpath
translate
0 0 m
-4 0 l
gsave
0.000 setgray
fill
grestore
stroke
grestore
} bind def
518.4 331.2 o
grestore
gsave
52.609375 326.739063 translate
0.000000 rotate
0.000000 0.171875 m /minus glyphshow
10.054688 0.171875 m /five glyphshow
grestore
gsave
/o {
gsave
newpath
translate
0 0 m
4 0 l
gsave
0.000 setgray
fill
grestore
stroke
grestore
} bind def
72 388.8 o
grestore
gsave
/o {
gsave
newpath
translate
0 0 m
-4 0 l
gsave
0.000 setgray
fill
grestore
stroke
grestore
} bind def
518.4 388.8 o
grestore
gsave
52.234375 384.425000 translate
0.000000 rotate
0.000000 0.000000 m /minus glyphshow
10.054688 0.000000 m /four glyphshow
grestore
gsave
39.718750 135.234375 translate
90.000000 rotate
0.000000 2.500000 m /c glyphshow
6.597656 2.500000 m /o glyphshow
13.939453 2.500000 m /h glyphshow
21.544922 2.500000 m /e glyphshow
28.927734 2.500000 m /s glyphshow
35.179688 2.500000 m /i glyphshow
38.513672 2.500000 m /v glyphshow
45.615234 2.500000 m /e glyphshow
52.998047 2.500000 m /space glyphshow
56.812500 2.500000 m /e glyphshow
64.195312 2.500000 m /n glyphshow
71.800781 2.500000 m /e glyphshow
79.183594 2.500000 m /r glyphshow
83.867188 2.500000 m /g glyphshow
91.484375 2.500000 m /y glyphshow
98.585938 2.500000 m /space glyphshow
102.400391 2.500000 m /parenleft glyphshow
107.082031 2.500000 m /e glyphshow
114.464844 2.500000 m /V glyphshow
122.673828 2.500000 m /slash glyphshow
126.716797 2.500000 m /a glyphshow
134.070312 2.500000 m /t glyphshow
138.775391 2.500000 m /o glyphshow
146.117188 2.500000 m /m glyphshow
157.806641 2.500000 m /parenright glyphshow
grestore
1.000 setlinewidth
2 setlinecap
gsave
72 388.8 m
518.4 388.8 l
stroke
grestore
gsave
518.4 43.2 m
518.4 388.8 l
stroke
grestore
gsave
72 43.2 m
518.4 43.2 l
stroke
grestore
gsave
72 43.2 m
72 388.8 l
stroke
grestore
1 setlinecap
gsave
482.567 113.299 m
448.551 124.016 l
444.1 125.419 441.874 128.453 441.874 133.12 c
441.874 138.006 l
stroke
grestore
gsave
439.474 133.206 m
441.874 138.006 l
444.274 133.206 l
stroke
grestore
2 setlinecap
gsave
476.774 95.92 m
507.009 95.92 l
509.409 95.92 510.609 97.12 510.609 99.52 c
510.609 108.598 l
510.609 110.998 509.409 112.198 507.009 112.198 c
476.774 112.198 l
474.374 112.198 473.174 110.998 473.174 108.598 c
473.174 99.52 l
473.174 97.12 474.374 95.92 476.774 95.92 c
cl
gsave
0.800 setgray
fill
grestore
stroke
grestore
gsave
476.774286 99.520000 translate
0.000000 rotate
0.000000 0.171875 m /L glyphshow
6.685547 0.171875 m /S glyphshow
14.302734 0.171875 m /D glyphshow
23.292969 0.171875 m /A glyphshow
grestore
1 setlinecap
gsave
512.031 188.997 m
474.143 199.183 l
469.636 200.394 467.383 203.333 467.383 208 c
467.383 212.886 l
stroke
grestore
gsave
464.983 208.086 m
467.383 212.886 l
469.783 208.086 l
stroke
grestore
2 setlinecap
gsave
513.083 171.7 m
539.114 171.7 l
541.514 171.7 542.714 172.9 542.714 175.3 c
542.714 184.378 l
542.714 186.778 541.514 187.978 539.114 187.978 c
513.083 187.978 l
510.683 187.978 509.483 186.778 509.483 184.378 c
509.483 175.3 l
509.483 172.9 510.683 171.7 513.083 171.7 c
cl
gsave
0.800 setgray
fill
grestore
stroke
grestore
gsave
513.082857 175.300000 translate
0.000000 rotate
0.000000 0.171875 m /G glyphshow
9.298828 0.171875 m /G glyphshow
18.597656 0.171875 m /A glyphshow
grestore
0.300 setgray
gsave
399.313 312.55 m
559.575 312.55 l
559.575 402.884 l
399.313 402.884 l
399.313 312.55 l
cl
gsave
fill
grestore
stroke
grestore
0.000 setgray
gsave
397.313 314.55 m
557.575 314.55 l
557.575 404.884 l
397.313 404.884 l
397.313 314.55 l
cl
gsave
1.000 setgray
fill
grestore
stroke
grestore
gsave
450.029688 390.787500 translate
0.000000 rotate
0.000000 0.171875 m /O glyphshow
9.445312 0.171875 m /u glyphshow
17.050781 0.171875 m /r glyphshow
21.984375 0.171875 m /space glyphshow
25.798828 0.171875 m /w glyphshow
35.613281 0.171875 m /o glyphshow
42.955078 0.171875 m /r glyphshow
47.888672 0.171875 m /k glyphshow
grestore
0.000 0.500 0.000 setrgbcolor
gsave
405.713 377.534 m
422.513 377.534 l
stroke
grestore
0.500 setlinewidth
0 setlinecap
0.000 setgray
gsave
/o {
gsave
newpath
translate
0 -3 m
0.795609 -3 1.55874 -2.6839 2.12132 -2.12132 c
2.6839 -1.55874 3 -0.795609 3 0 c
3 0.795609 2.6839 1.55874 2.12132 2.12132 c
1.55874 2.6839 0.795609 3 0 3 c
-0.795609 3 -1.55874 2.6839 -2.12132 2.12132 c
-2.6839 1.55874 -3 0.795609 -3 0 c
-3 -0.795609 -2.6839 -1.55874 -2.12132 -2.12132 c
-1.55874 -2.6839 -0.795609 -3 0 -3 c
cl
gsave
0.000 0.500 0.000 setrgbcolor
fill
grestore
stroke
grestore
} bind def
405.713 377.534 o
422.513 377.534 o
grestore
gsave
435.712500 371.756250 translate
0.000000 rotate
0.000000 1.578125 m /c glyphshow
6.597656 1.578125 m /l glyphshow
9.931641 1.578125 m /a glyphshow
17.285156 1.578125 m /s glyphshow
23.537109 1.578125 m /s glyphshow
29.789062 1.578125 m /i glyphshow
33.123047 1.578125 m /c glyphshow
39.720703 1.578125 m /a glyphshow
47.074219 1.578125 m /l glyphshow
50.408203 1.578125 m /space glyphshow
54.222656 1.578125 m /parenleft glyphshow
58.904297 1.578125 m /G glyphshow
68.203125 1.578125 m /A glyphshow
76.412109 1.578125 m /parenright glyphshow
grestore
1.000 setlinewidth
2 setlinecap
1.000 0.000 0.000 setrgbcolor
gsave
405.713 359.909 m
422.513 359.909 l
stroke
grestore
0.500 setlinewidth
0 setlinecap
0.000 setgray
gsave
/o {
gsave
newpath
translate
0 -3 m
0.795609 -3 1.55874 -2.6839 2.12132 -2.12132 c
2.6839 -1.55874 3 -0.795609 3 0 c
3 0.795609 2.6839 1.55874 2.12132 2.12132 c
1.55874 2.6839 0.795609 3 0 3 c
-0.795609 3 -1.55874 2.6839 -2.12132 2.12132 c
-2.6839 1.55874 -3 0.795609 -3 0 c
-3 -0.795609 -2.6839 -1.55874 -2.12132 -2.12132 c
-1.55874 -2.6839 -0.795609 -3 0 -3 c
cl
gsave
1.000 0.000 0.000 setrgbcolor
fill
grestore
stroke
grestore
} bind def
405.713 359.909 o
422.513 359.909 o
grestore
gsave
435.712500 353.209375 translate
0.000000 rotate
0.000000 2.500000 m /L glyphshow
6.685547 2.500000 m /D glyphshow
15.675781 2.500000 m /A glyphshow
23.884766 2.500000 m /space glyphshow
27.699219 2.500000 m /r glyphshow
32.382812 2.500000 m /e glyphshow
39.765625 2.500000 m /a glyphshow
47.119141 2.500000 m /l glyphshow
50.453125 2.500000 m /hyphen glyphshow
54.783203 2.500000 m /s glyphshow
61.035156 2.500000 m /p glyphshow
68.652344 2.500000 m /a glyphshow
76.005859 2.500000 m /c glyphshow
82.603516 2.500000 m /e glyphshow
89.986328 2.500000 m /space glyphshow
93.800781 2.500000 m /D glyphshow
103.041016 2.500000 m /F glyphshow
109.693359 2.500000 m /T glyphshow
grestore
1.000 setlinewidth
2 setlinecap
1.000 0.000 0.000 setrgbcolor
gsave
405.713 342.284 m
422.513 342.284 l
stroke
grestore
0.500 setlinewidth
0 setlinecap
0.000 setgray
gsave
/o {
gsave
newpath
translate
-3 -3 m
3 -3 l
3 3 l
-3 3 l
cl
gsave
1.000 0.000 0.000 setrgbcolor
fill
grestore
stroke
grestore
} bind def
405.713 342.284 o
422.513 342.284 o
grestore
gsave
435.712500 335.584375 translate
0.000000 rotate
0.000000 2.500000 m /P glyphshow
7.236328 2.500000 m /B glyphshow
15.468750 2.500000 m /E glyphshow
23.050781 2.500000 m /space glyphshow
26.865234 2.500000 m /r glyphshow
31.548828 2.500000 m /e glyphshow
38.931641 2.500000 m /a glyphshow
46.285156 2.500000 m /l glyphshow
49.619141 2.500000 m /hyphen glyphshow
53.949219 2.500000 m /s glyphshow
60.201172 2.500000 m /p glyphshow
67.818359 2.500000 m /a glyphshow
75.171875 2.500000 m /c glyphshow
81.769531 2.500000 m /e glyphshow
89.152344 2.500000 m /space glyphshow
92.966797 2.500000 m /D glyphshow
102.207031 2.500000 m /F glyphshow
108.859375 2.500000 m /T glyphshow
grestore
1.000 setlinewidth
2 setlinecap
0.000 0.000 1.000 setrgbcolor
gsave
405.713 324.659 m
422.513 324.659 l
stroke
grestore
0.500 setlinewidth
0 setlinecap
0.000 setgray
gsave
/o {
gsave
newpath
translate
0 -3 m
0.795609 -3 1.55874 -2.6839 2.12132 -2.12132 c
2.6839 -1.55874 3 -0.795609 3 0 c
3 0.795609 2.6839 1.55874 2.12132 2.12132 c
1.55874 2.6839 0.795609 3 0 3 c
-0.795609 3 -1.55874 2.6839 -2.12132 2.12132 c
-2.6839 1.55874 -3 0.795609 -3 0 c
-3 -0.795609 -2.6839 -1.55874 -2.12132 -2.12132 c
-1.55874 -2.6839 -0.795609 -3 0 -3 c
cl
gsave
0.000 0.000 1.000 setrgbcolor
fill
grestore
stroke
grestore
} bind def
405.713 324.659 o
422.513 324.659 o
grestore
gsave
435.712500 319.350000 translate
0.000000 rotate
0.000000 1.109375 m /B glyphshow
8.232422 1.109375 m /three glyphshow
15.867188 1.109375 m /L glyphshow
20.927734 1.109375 m /Y glyphshow
28.257812 1.109375 m /P glyphshow
35.494141 1.109375 m /slash glyphshow
39.537109 1.109375 m /six glyphshow
47.171875 1.109375 m /hyphen glyphshow
51.501953 1.109375 m /three glyphshow
59.136719 1.109375 m /one glyphshow
66.771484 1.109375 m /G glyphshow
76.070312 1.109375 m /asterisk glyphshow
grestore
1.000 setlinewidth
2 setlinecap
0.300 setgray
gsave
149.3 340.6 m
373.491 340.6 l
373.491 414.7 l
149.3 414.7 l
149.3 340.6 l
cl
gsave
fill
grestore
stroke
grestore
0.000 setgray
gsave
147.3 342.6 m
371.491 342.6 l
371.491 416.7 l
147.3 416.7 l
147.3 342.6 l
cl
gsave
1.000 setgray
fill
grestore
stroke
grestore
gsave
193.364062 400.368750 translate
0.000000 rotate
0.000000 2.406250 m /J glyphshow
3.539062 2.406250 m /o glyphshow
10.880859 2.406250 m /n glyphshow
18.486328 2.406250 m /e glyphshow
25.869141 2.406250 m /s glyphshow
32.121094 2.406250 m /space glyphshow
35.935547 2.406250 m /one glyphshow
43.570312 2.406250 m /nine glyphshow
51.205078 2.406250 m /nine glyphshow
58.839844 2.406250 m /nine glyphshow
66.474609 2.406250 m /space glyphshow
70.289062 2.406250 m /parenleft glyphshow
74.970703 2.406250 m /D glyphshow
84.210938 2.406250 m /F glyphshow
90.863281 2.406250 m /T glyphshow
98.193359 2.406250 m /space glyphshow
102.007812 2.406250 m /a glyphshow
109.361328 2.406250 m /l glyphshow
112.695312 2.406250 m /l glyphshow
116.029297 2.406250 m /hyphen glyphshow
120.359375 2.406250 m /e glyphshow
127.742188 2.406250 m /parenright glyphshow
grestore
0.500 setlinewidth
0 setlinecap
gsave
/o {
gsave
newpath
translate
-3.33067e-16 -4.24264 m
4.24264 0 l
5.55112e-16 4.24264 l
-4.24264 8.88178e-16 l
cl
gsave
0.000 setgray
fill
grestore
stroke
grestore
} bind def
155.7 389.35 o
172.5 389.35 o
grestore
gsave
185.700000 382.650000 translate
0.000000 rotate
0.000000 2.500000 m /c glyphshow
6.597656 2.500000 m /a glyphshow
13.951172 2.500000 m /g glyphshow
21.568359 2.500000 m /e glyphshow
grestore
gsave
/o {
gsave
newpath
translate
-3 -3 m
3 -3 l
3 3 l
-3 3 l
cl
gsave
0.000 setgray
fill
grestore
stroke
grestore
} bind def
155.7 371.725 o
172.5 371.725 o
grestore
gsave
185.700000 365.025000 translate
0.000000 rotate
0.000000 2.500000 m /r glyphshow
4.933594 2.500000 m /i glyphshow
8.267578 2.500000 m /n glyphshow
15.873047 2.500000 m /g glyphshow
grestore
gsave
/o {
gsave
newpath
translate
-1.5 2.59808 m
-3 1.33227e-15 l
-1.5 -2.59808 l
1.5 -2.59808 l
3 -1.77636e-15 l
1.5 2.59808 l
cl
gsave
0.000 setgray
fill
grestore
stroke
grestore
} bind def
155.7 354.1 o
172.5 354.1 o
grestore
gsave
185.700000 347.400000 translate
0.000000 rotate
0.000000 2.500000 m /g glyphshow
7.617188 2.500000 m /r glyphshow
12.550781 2.500000 m /a glyphshow
19.904297 2.500000 m /p glyphshow
27.521484 2.500000 m /h glyphshow
35.126953 2.500000 m /e glyphshow
42.509766 2.500000 m /n glyphshow
50.115234 2.500000 m /e glyphshow
grestore
gsave
/o {
gsave
newpath
translate
0 3 m
-3 -3 l
3 -3 l
cl
gsave
0.000 setgray
fill
grestore
stroke
grestore
} bind def
269.55 389.35 o
286.35 389.35 o
grestore
gsave
299.550000 382.650000 translate
0.000000 rotate
0.000000 2.500000 m /d glyphshow
7.617188 2.500000 m /o glyphshow
14.958984 2.500000 m /u glyphshow
22.564453 2.500000 m /b glyphshow
30.181641 2.500000 m /l glyphshow
33.515625 2.500000 m /e glyphshow
40.898438 2.500000 m /space glyphshow
44.712891 2.500000 m /r glyphshow
49.646484 2.500000 m /i glyphshow
52.980469 2.500000 m /n glyphshow
60.585938 2.500000 m /g glyphshow
grestore
gsave
/o {
gsave
newpath
translate
-3.67394e-16 -3 m
3 3 l
-3 3 l
cl
gsave
0.000 setgray
fill
grestore
stroke
grestore
} bind def
269.55 371.725 o
286.35 371.725 o
grestore
gsave
299.550000 367.353125 translate
0.000000 rotate
0.000000 0.171875 m /c glyphshow
6.597656 0.171875 m /h glyphshow
14.203125 0.171875 m /a glyphshow
21.556641 0.171875 m /i glyphshow
24.890625 0.171875 m /n glyphshow
grestore

end
showpage
